<define-tag pagetitle>DLA-3066-1 isync</define-tag>
<define-tag report_date>2022-7-01</define-tag>
<define-tag secrefs>CVE-2021-3578 CVE-2021-3657 CVE-2021-20247 Bug#983351 Bug#989564</define-tag>
<define-tag packages>isync</define-tag>
<define-tag isvulnerable>yes</define-tag>
<define-tag fixed>yes</define-tag>
<define-tag fixed-section>no</define-tag>

#use wml::debian::security

