<define-tag pagetitle>DLA-3110-1 glib2.0</define-tag>
<define-tag report_date>2022-09-15</define-tag>
<define-tag secrefs>CVE-2021-3800</define-tag>
<define-tag packages>glib2.0</define-tag>
<define-tag isvulnerable>yes</define-tag>
<define-tag fixed>yes</define-tag>
<define-tag fixed-section>no</define-tag>

#use wml::debian::security

