<define-tag pagetitle>DLA-2878-1 roundcube</define-tag>
<define-tag report_date>2022-01-12</define-tag>
<define-tag secrefs>CVE-2021-46144 Bug#1003027</define-tag>
<define-tag packages>roundcube</define-tag>
<define-tag isvulnerable>yes</define-tag>
<define-tag fixed>yes</define-tag>
<define-tag fixed-section>no</define-tag>

#use wml::debian::security

