<define-tag pagetitle>DLA-2985-1 golang-1.7</define-tag>
<define-tag report_date>2022-04-28</define-tag>
<define-tag secrefs>CVE-2022-23772 CVE-2022-23806 CVE-2022-24921</define-tag>
<define-tag packages>golang-1.7</define-tag>
<define-tag isvulnerable>yes</define-tag>
<define-tag fixed>yes</define-tag>
<define-tag fixed-section>no</define-tag>

#use wml::debian::security

