<define-tag pagetitle>DSA-4898-1 wpa</define-tag>
<define-tag report_date>2021-4-22</define-tag>
<define-tag secrefs>CVE-2020-12695 CVE-2021-0326 CVE-2021-27803 Bug#976106 Bug#981971</define-tag>
<define-tag packages>wpa</define-tag>
<define-tag isvulnerable>yes</define-tag>
<define-tag fixed>yes</define-tag>
<define-tag fixed-section>no</define-tag>

#use wml::debian::security



</dl>
