<define-tag pagetitle>DSA-4920-1 libx11</define-tag>
<define-tag report_date>2021-5-24</define-tag>
<define-tag secrefs>CVE-2021-31535 Bug#988737</define-tag>
<define-tag packages>libx11</define-tag>
<define-tag isvulnerable>yes</define-tag>
<define-tag fixed>yes</define-tag>
<define-tag fixed-section>no</define-tag>

#use wml::debian::security



</dl>
