<define-tag pagetitle>DSA-4818-1 sympa</define-tag>
<define-tag report_date>2020-12-23</define-tag>
<define-tag secrefs>CVE-2020-9369 CVE-2020-10936 CVE-2020-26932 CVE-2020-29668 Bug#952428 Bug#961491 Bug#971904 Bug#976020</define-tag>
<define-tag packages>sympa</define-tag>
<define-tag isvulnerable>yes</define-tag>
<define-tag fixed>yes</define-tag>
<define-tag fixed-section>no</define-tag>

#use wml::debian::security



</dl>
