<define-tag pagetitle>DSA-4765-1 modsecurity</define-tag>
<define-tag report_date>2020-9-18</define-tag>
<define-tag secrefs>CVE-2020-15598</define-tag>
<define-tag packages>modsecurity</define-tag>
<define-tag isvulnerable>yes</define-tag>
<define-tag fixed>yes</define-tag>
<define-tag fixed-section>no</define-tag>

#use wml::debian::security



</dl>
