<define-tag pagetitle>DSA-4732-1 squid</define-tag>
<define-tag report_date>2020-7-21</define-tag>
<define-tag secrefs>CVE-2019-18860 CVE-2020-15049</define-tag>
<define-tag packages>squid</define-tag>
<define-tag isvulnerable>yes</define-tag>
<define-tag fixed>yes</define-tag>
<define-tag fixed-section>no</define-tag>

#use wml::debian::security



</dl>
