<define-tag pagetitle>DLA-2559-1 busybox</define-tag>
<define-tag report_date>2021-2-15</define-tag>
<define-tag secrefs>CVE-2011-5325 CVE-2015-9261 CVE-2016-2147 CVE-2016-2148 CVE-2017-15873 CVE-2017-16544 CVE-2018-1000517 Bug#902724 Bug#882258 Bug#879732 Bug#818497 Bug#818499 Bug#803097 Bug#802702</define-tag>
<define-tag packages>busybox</define-tag>
<define-tag isvulnerable>yes</define-tag>
<define-tag fixed>yes</define-tag>
<define-tag fixed-section>no</define-tag>

#use wml::debian::security

