<define-tag pagetitle>DLA-2144-1 qemu</define-tag>
<define-tag report_date>2020-03-16</define-tag>
<define-tag secrefs>CVE-2020-1711 CVE-2020-8608</define-tag>
<define-tag packages>qemu</define-tag>
<define-tag isvulnerable>yes</define-tag>
<define-tag fixed>yes</define-tag>
<define-tag fixed-section>no</define-tag>

#use wml::debian::security

