<define-tag pagetitle>DLA-2161-1 tika</define-tag>
<define-tag report_date>2020-03-28</define-tag>
<define-tag secrefs>CVE-2020-1950 CVE-2020-1951 Bug#954302 Bug#954303</define-tag>
<define-tag packages>tika</define-tag>
<define-tag isvulnerable>yes</define-tag>
<define-tag fixed>yes</define-tag>
<define-tag fixed-section>no</define-tag>

#use wml::debian::security

