<define-tag pagetitle>DLA-2284-1 ksh</define-tag>
<define-tag report_date>2020-07-21</define-tag>
<define-tag secrefs>CVE-2019-14868</define-tag>
<define-tag packages>ksh</define-tag>
<define-tag isvulnerable>yes</define-tag>
<define-tag fixed>yes</define-tag>
<define-tag fixed-section>no</define-tag>

#use wml::debian::security

