<define-tag pagetitle>DLA-2451-1 libvncserver</define-tag>
<define-tag report_date>2020-11-15</define-tag>
<define-tag secrefs>CVE-2020-25708</define-tag>
<define-tag packages>libvncserver</define-tag>
<define-tag isvulnerable>yes</define-tag>
<define-tag fixed>yes</define-tag>
<define-tag fixed-section>no</define-tag>

#use wml::debian::security

