<define-tag pagetitle>DLA-2099-1 checkstyle</define-tag>
<define-tag report_date>2020-2-10</define-tag>
<define-tag secrefs>CVE-2019-10782</define-tag>
<define-tag packages>checkstyle</define-tag>
<define-tag isvulnerable>yes</define-tag>
<define-tag fixed>yes</define-tag>
<define-tag fixed-section>no</define-tag>

#use wml::debian::security

