<define-tag pagetitle>DLA-1283-2 python-crypto</define-tag>
<define-tag report_date>2018-4-9</define-tag>
<define-tag packages>python-crypto</define-tag>
<define-tag isvulnerable>yes</define-tag>
<define-tag fixed>yes</define-tag>
<define-tag fixed-section>no</define-tag>

#use wml::debian::security

