<define-tag pagetitle>DSA-4494-1 kconfig</define-tag>
<define-tag report_date>2019-8-09</define-tag>
<define-tag secrefs>CVE-2019-14744</define-tag>
<define-tag packages>kconfig</define-tag>
<define-tag isvulnerable>yes</define-tag>
<define-tag fixed>yes</define-tag>
<define-tag fixed-section>no</define-tag>

#use wml::debian::security



</dl>
