<define-tag pagetitle>DSA-4574-1 redmine</define-tag>
<define-tag report_date>2019-11-19</define-tag>
<define-tag secrefs>CVE-2019-17427 CVE-2019-18890</define-tag>
<define-tag packages>redmine</define-tag>
<define-tag isvulnerable>yes</define-tag>
<define-tag fixed>yes</define-tag>
<define-tag fixed-section>no</define-tag>

#use wml::debian::security



</dl>
