<define-tag pagetitle>DSA-4496-1 pango1.0</define-tag>
<define-tag report_date>2019-8-11</define-tag>
<define-tag secrefs>CVE-2019-1010238 Bug#933860</define-tag>
<define-tag packages>pango1.0</define-tag>
<define-tag isvulnerable>yes</define-tag>
<define-tag fixed>yes</define-tag>
<define-tag fixed-section>no</define-tag>

#use wml::debian::security



</dl>
