<define-tag pagetitle>DSA-5086-1 thunderbird</define-tag>
<define-tag report_date>2022-2-23</define-tag>
<define-tag secrefs>CVE-2022-0566</define-tag>
<define-tag packages>thunderbird</define-tag>
<define-tag isvulnerable>yes</define-tag>
<define-tag fixed>yes</define-tag>
<define-tag fixed-section>no</define-tag>

#use wml::debian::security



</dl>
