<define-tag pagetitle>DSA-5230-1 chromium</define-tag>
<define-tag report_date>2022-9-15</define-tag>
<define-tag secrefs>CVE-2022-3195 CVE-2022-3196 CVE-2022-3197 CVE-2022-3198 CVE-2022-3199 CVE-2022-3200 CVE-2022-3201</define-tag>
<define-tag packages>chromium</define-tag>
<define-tag isvulnerable>yes</define-tag>
<define-tag fixed>yes</define-tag>
<define-tag fixed-section>no</define-tag>

#use wml::debian::security



</dl>
