<define-tag pagetitle>DSA-5090-1 firefox-esr</define-tag>
<define-tag report_date>2022-3-06</define-tag>
<define-tag secrefs>CVE-2022-26485 CVE-2022-26486</define-tag>
<define-tag packages>firefox-esr</define-tag>
<define-tag isvulnerable>yes</define-tag>
<define-tag fixed>yes</define-tag>
<define-tag fixed-section>no</define-tag>

#use wml::debian::security



</dl>
