<define-tag pagetitle>DSA-5245-1 chromium</define-tag>
<define-tag report_date>2022-10-02</define-tag>
<define-tag secrefs>CVE-2022-3370 CVE-2022-3373</define-tag>
<define-tag packages>chromium</define-tag>
<define-tag isvulnerable>yes</define-tag>
<define-tag fixed>yes</define-tag>
<define-tag fixed-section>no</define-tag>

#use wml::debian::security



</dl>
