<define-tag pagetitle>DLA-1902-1 djvulibre</define-tag>
<define-tag report_date>2019-8-29</define-tag>
<define-tag secrefs>CVE-2019-15142 CVE-2019-15143 CVE-2019-15144 CVE-2019-15145</define-tag>
<define-tag packages>djvulibre</define-tag>
<define-tag isvulnerable>yes</define-tag>
<define-tag fixed>yes</define-tag>
<define-tag fixed-section>no</define-tag>

#use wml::debian::security

