<define-tag pagetitle>DLA-1908-1 pump</define-tag>
<define-tag report_date>2019-09-02</define-tag>
<define-tag secrefs></define-tag>
<define-tag packages>pump</define-tag>
<define-tag isvulnerable>yes</define-tag>
<define-tag fixed>yes</define-tag>
<define-tag fixed-section>no</define-tag>

#use wml::debian::security
