    1	93sam 	Steve McIntyre
    2	aba 	Andreas Barth
    3	abe 	Axel Beckert
    4	abhijith 	Abhijith PA
    5	abi 	Michael Ablassmeier
    6	aboll 	Andreas Boll
    7	absurd 	Stephan Suerken
    8	achernya 	Alexander Chernyakhovsky
    9	adamm 	Adam Majer
   10	adconrad 	Adam Conrad
   11	adejong 	Arthur de Jong
   12	adn 	Mohammed Adnène Trojette
   13	adrianorg 	Adriano Rafael Gomes
   14	adsb 	Adam D. Barratt
   15	aeb 	Andreas E. Bombe
   16	aerostitch 	Joseph Herlant
   17	afif 	Afif Elghraoui
   18	agi 	Alberto Gonzalez Iniesta
   19	agmartin 	Agustín Martín Domingo
   20	agx 	Guido Guenther
   21	ah 	Andreas Henriksson
   22	ahs3 	Al Stone
   23	aigarius 	Aigars Mahinovs
   24	ajmitch 	Andrew Mitchell
   25	ajqlee 	Andrew Lee
   26	ajt 	Anthony Towns
   27	akira 	Akira Yamada
   28	akumar 	Kumar Appaiah
   29	alejandro 	Alejandro Garrido Mota
   30	alessio 	Alessio Treglia
   31	alex 	Alexander List
   32	alexm 	Alex Muntada
   33	alexp 	Alex Pennace
   34	alfs 	Stefan Alfredsson
   35	alteholz 	Thorsten Alteholz
   36	amacater 	Andrew Martin Adrian Cater
   37	amaya 	Amaya Rodrigo Sastre
   38	ametzler 	Andreas Metzler
   39	ana 	Ana Beatriz Guerrero López
   40	anarcat 	Antoine Beaupré
   41	anbe 	Andreas Beckmann
   42	andi 	Andreas B. Mundt
   43	andree 	Andree Leidenfrost
   44	andrelop 	Andre Luis Lopes
   45	andrewsh 	Andrej Shadura
   46	andyli 	Andy Li
   47	anfra 	Andreas Franzen
   48	angdraug 	Dmitry Borodaenko
   49	angel 	Angel Abad
   50	anibal 	Anibal Monsalve Salazar
   51	anoe 	Alexandre Delanoë
   52	ansgar 	Ansgar Burchardt
   53	antonio 	Antonio Radici
   54	apo 	Markus Koschany
   55	apoikos 	Apollon Oikonomopoulos
   56	apollock 	Andrew Pollock
   57	apw 	Amos Waterland
   58	aquette 	Arnaud Quette
   59	ar 	Yasuhiro Araki
   60	ardo 	Ardo van Rangelrooij
   61	ari 	Ari Pollak
   62	arnau 	Arnaud Fontaine
   63	arno 	Arno Töll
   64	aroldan 	Andrés Roldán
   65	aron 	Aron Xu
   66	arthurliu 	Obey Arthur Liu
   67	arturo 	Arturo Borrero González
   68	asac 	Alexander Sack
   69	asb 	Andrew Starr-Bochicchio
   70	ash 	Albert Huang
   71	asias 	Asias He
   72	aurel32 	Aurelien Jarno
   73	aviau 	Alexandre Viau
   74	avtobiff 	Per Andersson
   75	awm 	Andrew McMillan
   76	awoodland 	Alan Woodland
   77	az 	Alexander Zangerl
   78	azekulic 	Alen Zekulic
   79	bab 	Ben Burton
   80	bahner 	Lars Bahner
   81	balasankarc 	Balasankar Chelamattathu
   82	ballombe 	Bill Allombert
   83	bam 	Brian May
   84	bame 	Paul D. Bame
   85	baozich 	Chen Baozi
   86	bap 	Barak A. Pearlmutter
   87	barbier 	Denis Barbier
   88	barry 	Barry Warsaw
   89	bartm 	Bart Martens
   90	bas 	Bas Zoetekouw
   91	bayle 	Christian Bayle
   92	bbaren 	Benjamin Barenblat
   93	bblough 	William Blough
   94	bcwhite 	Brian White
   95	bdale 	Bdale Garbee
   96	bdefreese 	Barry deFreese
   97	bdrung 	Benjamin Drung
   98	ben 	Benjamin Mesing
   99	bencer 	Jorge Salamero Sanz
  100	bengen 	Hilko Bengen
  101	benh 	Ben Hutchings
  102	bernat 	Vincent Bernat
  103	berni 	Bernhard Schmidt
  104	berto 	Alberto Garcia
  105	bertol 	Nicolas Bertolissio
  106	beuc 	Sylvain Beucler
  107	bg66 	Akira Ohashi
  108	bgoglin 	Brice Goglin
  109	bgupta 	Brian Gupta
  110	biebl 	Michael Biebl
  111	bigeasy 	Sebastian Andrzej Siewior
  112	bignose 	Ben Finney
  113	bigon 	Laurent Bigonville
  114	blackxored 	Adrian Perez
  115	blade 	Eduard Bloch
  116	blarson 	Robert Alan Larson
  117	bluca 	Luca Boccassi
  118	bmarc 	Bertrand Marc
  119	bod 	Brendan O'Dea
  120	bootc 	Chris Boot
  121	bossekr 	Raphael Bossek
  122	bottoms 	Maitland Bottoms
  123	boutil 	Cédric Boutillier
  124	bpellin 	Brian Pellin
  125	brad 	Bradley Bosch
  126	branden 	Branden Robinson
  127	bremner 	David Bremner
  128	brianr 	Brian Ristuccia
  129	brlink 	Bernhard R. Link
  130	broonie 	Mark Brown
  131	brother 	Martin Bagge
  132	bs 	Bernd Schumacher
  133	bunk 	Adrian Bunk
  134	bureado 	Jose Parrella
  135	byang 	Boyuan Yang
  136	bzed 	Bernd Zeimetz
  137	calculus 	Jerome Georges Benoit
  138	calhariz 	Jose M. Calhariz
  139	camm 	Camm Maguire
  140	camrdale 	Cameron Dale
  141	capriott 	Andrea Capriotti
  142	carnil 	Salvatore Bonaccorso
  143	caroll 	Ana Carolina Comandulli
  144	carsten 	Carsten Hey
  145	cas 	Craig Sanders
  146	cascardo 	Thadeu Cascardo
  147	cate 	Giacomo Catenazzi
  148	cavedon 	Ludovico Cavedon
  149	cavok 	Domenico Andreoli
  150	cbiedl 	Christoph Biedl
  151	ccheney 	Christopher L. Cheney
  152	cech 	Petr Cech
  153	cedric 	Cédric Delfosse
  154	certik 	Ondřej Čertík
  155	cespedes 	Juan Cespedes
  156	chaica 	Carl Chenet
  157	chrish 	Christian Hudon
  158	chrism 	Christoph Martin
  159	christine 	Christine Christine Spang
  160	christoph 	Christoph Egger
  161	chronitis 	Gordon Ball
  162	cjwatson 	Colin Watson
  163	ckk 	Christian Kastner
  164	cklin 	Chuan-kai Lin
  165	claviola 	Carlos Laviola
  166	cleto 	Cleto Martín Angelina
  167	clint 	Clint Adams
  168	clown 	Alexei Nikolov
  169	cmb 	Chris Boyle
  170	cmc 	Claire Connelly
  171	cnanakos 	Chrysostomos Nanakos
  172	codehelp 	Neil Williams
  173	colint 	Colin Tuckley
  174	cord 	Cord Beermann
  175	corsac 	Yves-Alexis Perez
  176	costela 	Leo Costela
  177	coucouf 	Aurélien Couderc
  178	cowboy 	Richard A. Nelson
  179	cristian 	Cristian Greco
  180	csmall 	Craig Small
  181	ctaylor 	Christopher Taylor
  182	ctrochalakis 	Christos Trochalakis
  183	cts 	Christian T. Steigies
  184	cupis 	Paul Cupis
  185	curan 	Kai Wasserbäch
  186	cworth 	Carl Worth
  187	cwryu 	Changwoo Ryu
  188	cyb 	Cyril Bouthors
  189	czchen 	ChangZhuo Chen
  190	daf 	Dafydd Harries
  191	dai 	Daisuke Higuchi
  192	daigo 	Daigo Moriwaki
  193	daissi 	Dylan Aïssi
  194	dajobe 	Dave Beckett
  195	danai 	Danai Sae-Han
  196	dancer 	Junichi Uekawa
  197	danchev 	George Danchev
  198	daniel 	Daniel Baumann
  199	dannf 	Dann Frazier
  200	dapal 	David Paleino
  201	darek 	Dariusz Dwornikowski
  202	dato 	Dato Simó
  203	dave 	Dave Holland
  204	davidc 	David L. Coe
  205	dbugger 	Dennis L. Clark
  206	debacle 	Wolfgang Borgert
  207	debalance 	Philipp Huebner
  208	deek 	Jeff Teunissen
  209	deepak 	Deepak Tripathi
  210	delaunay 	Eric Delaunay
  211	denis 	Denis Briand
  212	dererk 	Ulises Vitulli
  213	dexter 	Piotr Roszatycki
  214	diane 	Diane Trout
  215	dilinger 	Andres Salomon
  216	dima 	Dima Barsky
  217	diocles 	Tim Retout
  218	directhex 	Jo Shields
  219	dirson 	Yann Dirson
  220	djpig 	Frank Lichtenheld
  221	dkg 	Daniel Kahn Gillmor
  222	dkogan 	Dima Kogan
  223	dktrkranz 	Luca Falavigna
  224	dlange 	Daniel Lange
  225	dld 	Drake Diedrich
  226	dlehn 	David I. Lehn
  227	dleidert 	Daniel Leidert
  228	dmartin 	Dale Martin
  229	dmn 	Damyan Ivanov
  230	dnusinow 	David Nusinow
  231	dod 	Dominique Dumont
  232	dogsleg 	Lev Lamberov
  233	doko 	Matthias Klose
  234	dom 	Dominic Hargreaves
  235	domibel 	Dominique Belhachemi
  236	don 	Don Armstrong
  237	donald 	Donald Norwood
  238	donkult 	David Kalnischkies
  239	dottedmag 	Mikhail Gusarov
  240	dparsons 	Drew Parsons
  241	dreamind 	Stefan Pfetzing
  242	dsilvers 	Daniel Silverstone
  243	duck 	Marc Dequènes
  244	dwatson 	David Watson
  245	ean 	Ean Schuessler
  246	ebourg 	Emmanuel Bourg
  247	ecsv 	Sven Eckelmann
  248	ed 	Ed Boraas
  249	edd 	Dirk Eddelbuettel
  250	edelhard 	Edelhard Becker
  251	edmonds 	Robert Edmonds
  252	edward 	Edward John Betts
  253	eevans 	Eric Evans
  254	ehashman 	Elana Hashman
  255	eichin 	Mark Eichin
  256	eighthave 	Hans-Christoph Steiner
  257	eike 	Eike Sauer
  258	elbrus 	Paul Mathijs Gevers
  259	elf 	Marc Singer
  260	ellert 	Mattias Ellert
  261	eloy 	Krzysztof Krzyzaniak
  262	ema 	Emanuele Rocca
  263	emfox 	Emfox Zhou
  264	enrico 	Enrico Zini
  265	eppesuig 	Giuseppe Sacco
  266	epsilon 	Daniel Echeverry
  267	eriberto 	Joao Eriberto Mota Filho
  268	eric 	Eric Dorland
  269	erich 	Erich Schubert
  270	erik 	Erik Wenzel
  271	eriks 	Erik Schanze
  272	erinn 	Erinn Clark
  273	eriol 	Daniele Tricoli
  274	etbe 	Russell Coker
  275	etobi 	Tobias Grimm
  276	eugen 	Eugeniy Meshcheryakov
  277	eugene 	Eugene Zhukov
  278	evgeni 	Evgeni Golov
  279	evo 	Davide Puricelli
  280	fabbe 	Fabian Fagerholm
  281	fabian 	Fabian Greffrath
  282	fabo 	Fathi Boudra
  283	falk 	Falk Hueffner
  284	faw 	Felipe Augusto van de Wiel
  285	federico 	Federico Ceratto
  286	fenio 	Bartosz Fenski
  287	fgeyer 	Felix Geyer
  288	fh 	Florian Hinzmann
  289	filippo 	Filippo Giunchedi
  290	fladi 	Michael Fladischer
  291	flo 	Florian Lohoff
  292	florian 	Florian Ernst
  293	fog 	Federico Di Gregorio
  294	foka 	Anthony Fok
  295	formorer 	Alexander Wirt
  296	fourdollars 	Shih-Yuan Lee
  297	fpeters 	Frederic Peters
  298	franam 	Francesco Namuri
  299	francisco 	Francisco Manuel García Claramonte
  300	francois 	Francois Marier
  301	frank 	Frank Küster
  302	frankie 	Francesco Lovergine
  303	frediz 	Frédéric Bonnard
  304	freee 	Free Ekanayaka
  305	fs 	Frederik Schüler
  306	fsateler 	Felipe Sateler
  307	fsfs 	Florian Schlichting
  308	fuddl 	Bruno Kleinert
  309	fuji 	Peter Kelemen
  310	fw 	Florian Weimer
  311	garabik 	Radovan Garabik
  312	garden 	Ludovico Gardenghi
  313	gareuselesinge 	Enrico Tassi
  314	gaudenz 	Gaudenz Steinlin
  315	gcs 	László Böszörményi
  316	geissert 	Raphael Geissert
  317	genannt 	Jonas Genannt
  318	georg 	Georg Faerber
  319	georgesk 	Georges Khaznadar
  320	gewo 	Gert Wollny
  321	gfa 	Gustavo Panizzo
  322	ghe 	Juan Gregorio Hernando Rivero
  323	ghedo 	Alessandro Ghedini
  324	ghostbar 	Jose Luis Rivas Contreras
  325	ginggs 	Graham Inggs
  326	gio 	Giovanni Mascellani
  327	giovani 	Giovani Augusto Ferreira
  328	giskard 	Riccardo Setti
  329	gladk 	Anton Gladky
  330	glandium 	Mike Hommey
  331	glaubitz 	John Paul Adrian Glaubitz
  332	glaweh 	Henning Glawe
  333	gleydson 	Gleydson Mazioli da Silva
  334	glondu 	Stéphane Glondu
  335	gniibe 	NIIBE Yutaka
  336	godisch 	Martin A. Godisch
  337	goedson 	Goedson Teixeira Paixao
  338	goneri 	Gonéri Le Bouder
  339	gotom 	Masanori Goto
  340	gq 	Alexander GQ Gerasiov
  341	grantma 	Matthew Grant
  342	gregoa 	Gregor Herrmann
  343	greuff 	Thomas Wana
  344	gris 	Christoph Göhre
  345	grisu 	Michael Bramer
  346	guilhem 	Guilhem Moulin
  347	guillem 	Guillem Jover
  348	guoliang 	Liang Guo
  349	gus 	Angus Lees
  350	gusnan 	Andreas Rönnquist
  351	guus 	Guus Sliepen
  352	gwolf 	Gunnar Wolf
  353	haas 	Christoph Haas
  354	hakan 	Hakan Ardo
  355	hallon 	Fredrik Hallenberg
  356	halls 	Chris Halls
  357	harmoney 	Patty Langasek
  358	harshula 	Harshula Jayasuriya
  359	hartmans 	Sam Hartman
  360	hazelsct 	Adam Powell
  361	hecker 	Richard Hecker
  362	hector 	Hector Garcia
  363	hefee 	Sandro Knauß
  364	helen 	Helen Faulkner
  365	helmutg 	Helmut Grohne
  366	henrich 	Hideki Yamane
  367	hertzog 	Raphaël Hertzog
  368	hle 	Hugo Lefeuvre
  369	hlieberman 	Harlan Lieberman-Berg
  370	hmh 	Henrique de Moraes Holschuh
  371	hoexter 	Sven Hoexter
  372	holger 	Holger Levsen
  373	holgerw 	Holger Wansing
  374	holmgren 	Magnus Holmgren
  375	honey 	Lukasz Jachowicz
  376	horms 	Simon Horman
  377	hpfn 	Herbert Parentes Fortes Neto
  378	hsteoh 	Hwei Sheng Teoh
  379	hug 	Philipp Hug
  380	hvhaugwitz 	Hannes von Haugwitz
  381	hyperair 	Loong Jin Chow
  382	iamfuzz 	Brian Thomason
  383	ianb 	Ian Beckwith
  384	ianw 	Ian Wienand
  385	ijc 	Ian James Campbell
  386	iko 	Anders Hammarquist
  387	iliastsi 	Ilias Tsitsimpis
  388	infinity0 	Ximin Luo
  389	intrigeri 	Intrigeri
  390	irl 	Iain R. Learmonth
  391	ishikawa 	Mutsumi Ishikawa
  392	iustin 	Iustin Pop
  393	ivan 	Ivan Kohler
  394	ivodd 	Ivo De Decker
  395	iwamatsu 	Nobuhiro Iwamatsu
  396	iwj 	Ian Jackson
  397	jab 	Jeff Breidenbach
  398	jackyf 	Eugene V. Lyubimkin
  399	jaime 	Jaime Robles
  400	jak 	Julian Andres Klode
  401	jaldhar 	Jaldhar H. Vyas
  402	jamespage 	James Downing Page
  403	jamessan 	James McCoy
  404	jamuraa 	Michael Janssen
  405	jan 	Jan Niehusmann
  406	jandd 	Jan Dittberner
  407	janos 	Janos Guljas
  408	jaq 	Jamie Wilkinson
  409	jaqque 	John H. IV Robinson
  410	jas 	Simon Josefsson
  411	jason 	Jason Thomas
  412	jaybonci 	Jay Bonci
  413	jbelmonte 	John V. Belmonte
  414	jbernard 	Jon Bernard
  415	jbfavre 	Jean Baptiste Favre
  416	jbicha 	Jeremy Bicha
  417	jbouse 	Jeremy Bouse
  418	jcc 	Jonathan Cristopher Carter
  419	jcorbier 	Jérémie Corbier
  420	jcowgill 	James Cowgill
  421	jcristau 	Julien Cristau
  422	jdg 	Julian Gilbey
  423	jeb 	James Bromberger
  424	jeffity 	Lisa Baron
  425	jelmer 	Jelmer Vernooij
  426	jeroen 	Jeroen van Wolffelaar
  427	jewel 	John Leuner
  428	jfs 	Javier Fernandez-Sanguino Peña
  429	jgoerzen 	John Goerzen
  430	jh 	Jörgen Hägg
  431	jhr 	Jan Hauke Rahm
  432	jimmy 	Jimmy Kaplowitz
  433	jjr 	Jeffrey Ratcliffe
  434	jlines 	John Lines
  435	jluebbe 	Jan Lübbe
  436	jmarler 	Jonathan Marler
  437	jmaslibre 	Josué Abarca
  438	jmm 	Moritz Muehlenhoff
  439	jmtd 	Jonathan Dowland
  440	jmw 	Jonathan Wiltshire
  441	jodal 	Stein Magnus Jodal
  442	joel 	Joel Rosdahl
  443	joerg 	Joerg Jaspert
  444	joey 	Martin Schulze
  445	johfel 	Johann Felix Soden
  446	johnf 	John Francesco Ferlito
  447	johns 	John Sullivan
  448	jon 	Jonathan Oxer
  449	jonny 	Jonny Lamb
  450	joostvb 	Joost van Baal
  451	jordi 	Jordi Mallach
  452	josch 	Johannes Schauer
  453	josem 	Jose M. Moya
  454	joshk 	Joshua Kwan
  455	joss 	Josselin Mouette
  456	josue 	Josué Ortega
  457	joussen 	Mario Joussen
  458	joy 	Josip Rodin
  459	jpmengual 	Jean-Philippe MENGUAL
  460	jpuydt 	Julien Puydt
  461	jredrejo 	José L. Redrejo Rodríguez
  462	jrnieder 	Jonathan Nieder
  463	jrtc27 	James Clarke
  464	js 	Jonas Smedegaard
  465	jspricke 	Jochen Sprickerhof
  466	jsw 	John Wright
  467	jule 	Juliane Friederike Holzt
  468	julian 	Julián Moreno Patiño
  469	jwilk 	Jakub Wilk
  470	kaare 	Kåre Thor Olsen
  471	kaction 	Dmitry Bogatov
  472	kamal 	Kamal Mostafa
  473	kamop 	Atsushi Kamoshida
  474	kanashiro 	Lucas Kanashiro
  475	kaol 	Kari Pahula
  476	kaplan 	Lior Kaplan
  477	kapouer 	Jérémy Lal
  478	karen 	Karen M Sandler
  479	kartik 	Kartik Mistry
  480	kcoyner 	Kevin Coyner
  481	kcr 	Karl Ramm
  482	kees 	Kees Cook
  483	keithp 	Keith Packard
  484	kelbert 	Jean-Michel Kelbert
  485	kengyu 	Keng-Yu Lin
  486	kevko 	Michal Arbet
  487	keybuk 	Scott James Remnant
  488	khalid 	Khalid Aziz
  489	kibi 	Cyril Brulebois
  490	kilian 	Kilian Krause
  491	kilobyte 	Adam Borowski
  492	kitame 	Takuo KITAME
  493	kitterman 	Scott Kitterman
  494	klee 	Klee Dienes
  495	kmr 	Kevin M. Rosenberg
  496	knok 	Takatsugu Nokubi
  497	kobla 	Ondřej Kobližek
  498	kobold 	Fabio Tranchitella
  499	kolter 	Emmanuel Bouthenot
  500	koster 	Kanru Chen
  501	kov 	Gustavo Noronha
  502	kraai 	Matt Kraai
  503	krait 	Christopher Knadle
  504	krala 	Antonin Kral
  505	kreckel 	Richard Kreckel
  506	kritzefitz 	Sven Bartscher
  507	kroeckx 	Kurt Roeckx
  508	kula 	Marcin Kulisz
  509	lamby 	Chris Lamb
  510	lamont 	Lamont Jones
  511	laney 	Iain Lane
  512	lange 	Thomas Lange
  513	larjona 	Laura Arjona Reina
  514	lavamind 	Jerome Charaoui
  515	lawrencc 	Christopher Lawrence
  516	lazyfrosch 	Markus Frosch
  517	lbrenta 	Ludovic Brenta
  518	ldrolez 	Ludovic Drolez
  519	leatherface 	Julien Patriarca
  520	legoktm 	Kunal Mehta
  521	leist 	Yven Johannes Leist
  522	leitao 	Breno Leitao
  523	lenharo 	Daniel Lenharo de Souza
  524	leo 	Carsten Leonhardt
  525	lfaraone 	Luke Faraone
  526	lfilipoz 	Luca Filipozzi
  527	lightsey 	John Lightsey
  528	liiwi 	Jaakko Niemi
  529	lindi 	Timo Juhani Lindfors
  530	lingnau 	Anselm Lingnau
  531	lintux 	Wilmer van der Gaast
  532	lisandro 	Lisandro Damián Nicanor Pérez Meyer
  533	ljlane 	Laurence Lane
  534	lkajan 	Laszlo Kajan
  535	lmamane 	Lionel Elie Mamane
  536	locutusofborg 	Gianfranco Costamagna
  537	lohner 	Nils Boeffel
  538	loic 	Loic Dachary
  539	lolando 	Roland Mas
  540	lool 	Loïc Minier
  541	lopippo 	Filippo Rusconi
  542	lucab 	Luca Bruno
  543	lucas 	Lucas Nussbaum
  544	luciano 	Luciano Bello
  545	luigi 	Luigi Gangitano
  546	luk 	Luk Claes
  547	lumin 	Mo Zhou
  548	lunar 	Jérémy Bobbio
  549	lutin 	Albin Tonnerre
  550	ma 	Martin Albert
  551	maarten 	Maarten Bernardus Lankhorst
  552	mace 	Miah Gregory
  553	madamezou 	Francesca Ciceri
  554	madduck 	Martin F. Krafft
  555	madhack 	Mike Markley
  556	madkiss 	Martin Loschwitz
  557	maehara 	Keita Maehara
  558	mafm 	Manuel A. Fernandez Montecelo
  559	mak 	Matthias Klumpp
  560	mako 	Benjamin Hill
  561	maks 	Maximilian Attems
  562	malat 	Mathieu Malaterre
  563	malattia 	Mattia Dongili
  564	mans0954 	Christopher Stuart Hoskin
  565	manty 	Santiago Garcia Mantinan
  566	manu 	Emmanuel Kasper Kasprzyk
  567	manuel 	Manuel Prinz
  568	mapache 	Eduardo Trápani
  569	marciosouza 	Marcio de Souza Oliveira
  570	marga 	Margarita Manterola
  571	marillat 	Christian Marillat
  572	markos 	Konstantinos Margaritis
  573	marks 	Mark Shuttleworth
  574	markus 	Markus Wanner
  575	maswan 	Mattias Wadenstein
  576	mattb 	Matthew Brown
  577	matthew 	Matthew Vernon
  578	matthieucan 	Matthieu Caneill
  579	matthijs 	Matthijs Möhlmann
  580	mattia 	Mattia Rizzolo
  581	mattice 	Michael D. Mattice
  582	maxx 	Martin Wuertele
  583	maxy 	Maximiliano Curia
  584	mazen 	Mazen Neifer
  585	mbanck 	Michael Banck
  586	mbehrle 	Mathias Behrle
  587	mbuck 	Martin Buck
  588	mckinstry 	Alastair McKinstry
  589	md 	Marco d'Itri
  590	mdj 	Mikael Djurfeldt
  591	mdz 	Matt Zimmerman
  592	mechtilde 	Mechtilde Stehmann
  593	meebey 	Mirco Bauer
  594	mehdi 	Mehdi Dogguy
  595	mejo 	Jonas Meurer
  596	mennucc1 	Andrea Mennucci
  597	merker 	Karsten Merker
  598	merkys 	Andrius Merkys
  599	meskes 	Michael Meskes
  600	mestia 	Alexandre Mestiashvili
  601	metal 	Marcelo Jorge Vieira
  602	meyering 	Jim Meyering
  603	mez 	Martin Meredith
  604	mfv 	Matteo F. Vescovi
  605	mgilbert 	Michael Gilbert
  606	mhatta 	Masayuki Hatta
  607	mhy 	Mark Hymers
  608	micah 	Micah Anderson
  609	micha 	Micha Lenk
  610	michi 	Michael Schutte
  611	midget 	Dario Minnucci
  612	mih 	Michael Hanke
  613	mika 	Michael Prokop
  614	milan 	Milan Kupcevic
  615	miquels 	Miquel van Smoorenburg
  616	miriam 	Miriam Ruiz
  617	mithrandi 	Tristan Seligmann
  618	mitya57 	Dmitry Shachnev
  619	mjb 	Michael Beattie
  620	mjeanson 	Michael Jeanson
  621	mjg59 	Matthew Garrett
  622	mjr 	M J Ray
  623	mjt 	Michael Tokarev
  624	mlt 	Marcela Tiznado
  625	mmind 	Heiko Stübner
  626	mnencia 	Marco Nenciarini
  627	mnordstr 	Mattias Nordstrom
  628	modax 	Modestas Vainius
  629	moeller 	Steffen Möller
  630	mollydb 	Molly de Blanc
  631	mones 	Ricardo Mones Lastra
  632	monica 	Mònica Ramírez Arceda
  633	moray 	Moray Allan
  634	morimura 	Teruyuki Morimura
  635	morph 	Sandro Tosi
  636	mpalmer 	Matthew Palmer
  637	mpitt 	Martin Pitt
  638	mquinson 	Martin Quinson
  639	mrd 	Matthew Danish
  640	ms 	Michael Schiansky
  641	msameer 	Mohammed Sameer
  642	msp 	Mark Purcell
  643	mstone 	Michael Stone
  644	mt 	Michael Tautschnig
  645	mtecknology 	Michael Lustfield
  646	mtmiller 	Mike Miller
  647	muammar 	Muammar El Khatib
  648	murat 	Murat Demirten
  649	mvb 	Martijn van Brummelen
  650	mvo 	Michael Vogt
  651	mwei 	Ming-ting Yao Wei
  652	mwhudson 	Michael Hudson-Doyle
  653	myon 	Christoph Berg
  654	nas 	Neil A. Schemenauer
  655	nathans 	Nathan Scott
  656	nattie 	Nattie Mayer-Hutchings
  657	natureshadow 	Dominik George
  658	nboullis 	Nicolas Boullis
  659	nbreen 	Nicholas Breen
  660	neil 	Neil L. Roeth
  661	neilm 	Neil McGovern
  662	netzwurm 	David Spreen
  663	neutrons 	Neutron Soutmun
  664	nhandler 	Nathaniel Harrison Handler
  665	nickm 	Nick Morrott
  666	nicolas 	Nicolas Boulenguez
  667	nicoo 	Nicolas Braud-Santoni
  668	nijel 	Michal Cihar
  669	nirgal 	Jean-Michel Vourgère
  670	noahm 	Noah Meyerhans
  671	nobse 	Norbert Tretkowski
  672	nodens 	Clément Hermann
  673	noel 	Noèl Köthe
  674	nomadium 	Miguel Landaeta
  675	nomeata 	Joachim Breitner
  676	noodles 	Jonathan McDowell
  677	noshiro 	Shigeo Noshiro
  678	nthykier 	Niels Thykier
  679	ntyni 	Niko Tyni
  680	nveber 	Norbert Veber
  681	nwp 	Nick Phillips
  682	ocsi 	Lenart Janos
  683	odyx 	Didier Raboud
  684	ogi 	Ognyan Kulev
  685	ohura 	Makoto OHURA
  686	olasd 	Nicolas Dandrimont
  687	olebole 	Ole Streicher
  688	olek 	Olek Wojnar
  689	oliva 	Gennaro Oliva
  690	olly 	Olly Betts
  691	omote 	Masahito Omote
  692	ondrej 	Ondrej Sury
  693	onlyjob 	Dmitry Smirnov
  694	onovy 	Ondřej Nový
  695	oohara 	Yuuma Oohara
  696	opal 	Ola Lundqvist
  697	osallou 	Olivier Sallou
  698	osamu 	Osamu Aoki
  699	otto 	Otto Kekäläinen
  700	ovek 	Ove Kåven
  701	p2 	Peter De Schrijver
  702	pabs 	Paul Wise
  703	paddatrapper 	Kyle Robbertze
  704	pape 	Gerrit Pape
  705	paravoid 	Faidon Liambotis
  706	pasc 	Pascal Hakim
  707	patryk 	Patryk Cisek
  708	paul 	Paul Slootman
  709	paulliu 	Ying-Chun Liu
  710	paulproteus 	Asheesh Laroia
  711	paultag 	Paul Richards Tagliamonte
  712	paulvt 	Paul van Tilburg
  713	paulwaite 	Paul Waite
  714	pdm 	Milan Zamazal
  715	peb 	Pierre-Elliott Bécue
  716	peloy 	Eloy A. Paris
  717	pere 	Petter Reinholdtsen
  718	petere 	Peter Eisentraut
  719	pfaffben 	Ben Pfaff
  720	philh 	Philip Hands
  721	philou 	Philippe Thierry
  722	phls 	Paulo Henrique de Lima Santana
  723	picca 	Frédéric-Emmanuel Picca
  724	piefel 	Michael Piefel
  725	piem 	Paul Brossier
  726	pik 	Paul Cannon
  727	pini 	Gilles Filippini
  728	pino 	Pino Toscano
  729	piotr 	Piotr Ożarowski
  730	pjb 	Phil Brooke
  731	pkern 	Philipp Kern
  732	plessy 	Charles Plessy
  733	plugwash 	Peter Michael Green
  734	pm 	Paul Martin
  735	pmatthaei 	Patrick Matthäi
  736	pmhahn 	Philipp Matthias Hahn
  737	pochu 	Emilio Pozuelo Monfort
  738	pollo 	Louis-Philippe Véronneau
  739	pollux 	Pierre Chifflier
  740	porridge 	Marcin Owsiany
  741	pouelle 	Patrick Ouellette
  742	prach 	Prach Pongpanich
  743	praveen 	Praveen Arimbrathodiyil
  744	preining 	Norbert Preining
  745	pronovic 	Kenneth J. Pronovici
  746	psg 	Peter S. Galbraith
  747	punit 	Punit Agrawal
  748	pvaneynd 	Peter Van Eynde
  749	qjb 	Jay Berkenbilt
  750	racke 	Stefan Hornburg
  751	rafael 	Rafael Laboissiere
  752	rak 	Ryan Kavanagh
  753	ras 	Russell Stuart
  754	rattusrattus 	Andy Simpkins
  755	rbalint 	Balint Reczey
  756	rbasak 	Robie Basak
  757	rbd 	Roland Dreier
  758	rcp 	Ross Peachey
  759	rcw 	Robert Woodcock
  760	reg 	Gregory Colpart
  761	reichel 	Joachim Reichel
  762	rene 	Rene Engelhard
  763	rfehren 	Roland Fehrenbacher
  764	rfrancoise 	Romain Francoise
  765	rha 	Robert Haist
  766	rhonda 	Rhonda D'Vine
  767	richih 	Richard Michael Hartmann
  768	riku 	Riku Voipio
  769	risko 	RISKO Gergely
  770	rlb 	Rob Browning
  771	rmayorga 	Rene Mayorga
  772	rmayr 	Rene Mayrhofer
  773	rmgolbeck 	Ryan M. Golbeck
  774	rmh 	Robert Millan
  775	roam 	Peter Pentchev
  776	robert 	Robert Luberda
  777	robertle 	Robert Lemmen
  778	roberto 	Roberto C. Sanchez
  779	robotux 	Thomas Preud'homme
  780	robster 	Rob Bradford
  781	roktas 	Recai Oktas
  782	roland 	Roland Rosenfeld
  783	ron 	Ron Lee
  784	rosh 	Roger Shimizu
  785	ross 	Ross Burton
  786	rossgammon 	Ross Gammon
  787	rouca 	Bastien Roucariès
  788	rousseau 	Ludovic Rousseau
  789	rover 	Roberto Lumbreras
  790	rra 	Russ Allbery
  791	rrs 	Ritesh Raj Sarraf
  792	rubund 	Ruben Undheim
  793	rudi 	Roland Marcus Rutschmann
  794	rvandegrift 	Ross Vandegrift
  795	rweber 	Rene Weber
  796	salve 	Davide G.M. Salvetti
  797	samj 	Sam Johnston
  798	samo 	Sam Clegg
  799	samueloph 	Samuel Henrique
  800	santiago 	Santiago Ruano Rincón
  801	sanvila 	Santiago Vila
  802	sasa 	Attila Szalay
  803	sathieu 	Mathieu Parent
  804	satta 	Sascha Steinbiss
  805	sbadia 	Sebastien Badia
  806	sblondon 	Stéphane Blondon
  807	schepler 	Daniel Schepler
  808	schlue 	Michael Schlueter
  809	schmitz 	Michael Schmitz
  810	schultmc 	Michael C. Schultheiss
  811	sdt 	Stuart Teasdale
  812	seamlik 	Kai-Chung Yan
  813	seamus 	Angel Ramos
  814	seb 	Sebastien Delafond
  815	seb128 	Sebastien Bacher
  816	sebastic 	Sebastiaan Couwenberg
  817	sebastien 	Sébastien Villemot
  818	segre 	Carlo U. Segre
  819	sergiodj 	Sergio Durigan Junior
  820	serpent 	Tomasz Rybak
  821	sesse 	Steinar H. Gunderson
  822	sez 	Serafeim Zanikolas
  823	sf 	Stefan Fritsch
  824	sfrost 	Stephen Frost
  825	sgevatter 	Siegfried-Angel Gevatter Pujals
  826	sgolovan 	Sergei Golovan
  827	sgran 	Stephen Gran
  828	shachar 	Shachar Shemesh
  829	shaka 	Øystein Gisnås
  830	shane 	Shane Wegner
  831	sharkey 	Eric Sharkey
  832	sharky 	Jeremy Lainé
  833	shlomme 	Torsten Marek
  834	sho 	Samuel Hocevar
  835	showard 	Scott Sheridan Howard
  836	shugo 	Shugo Maeda
  837	siretart 	Reinhard Tartler
  838	sjackman 	Shaun Jackman
  839	sjoerd 	Sjoerd Simons
  840	sjr 	Simon Richter
  841	skainz 	Simon Kainz
  842	skitt 	Stephen Kitt
  843	skx 	Steve Kemp
  844	slomo 	Sebastian Dröge
  845	smarenka 	Stephen R. Marenka
  846	smcv 	Simon McVittie
  847	smimram 	Samuel Mimram
  848	smr 	Steven Michael Robbins
  849	smurf 	Matthias Urlichs
  850	spa 	Salvador Abreu
  851	spamaps 	Clint Byrum
  852	spectra 	Pablo Lorenzzoni
  853	spwhitton 	Sean Whitton
  854	sramacher 	Sebastian Ramacher
  855	sre 	Sebastian Reichel
  856	srittau 	Sebastian Rittau
  857	srivasta 	Manoj Srivastava
  858	srk 	Simon Kelley
  859	srud 	Sruthi Chandran
  860	ssgelm 	Stephen Gelman
  861	ssm 	Stig Sandbeck Mathisen
  862	stapelberg 	Michael Stapelberg
  863	stappers 	Geert Stappers
  864	steele 	David Steele
  865	stefanor 	Stefano Rivera
  866	steinm 	Uwe Steinmann
  867	stephe 	Stephen Leake
  868	steve 	Steve Kostecke
  869	stevegr 	Steve Greenland
  870	stevenc 	Steven Chamberlain
  871	stevenk 	Steve Kowalik
  872	sthibault 	Samuel Thibault
  873	sto 	Sergio Talens-Oliag
  874	stratus 	Gustavo Franco
  875	stuart 	Stuart Prescott
  876	sune 	Sune Vuorela
  877	sunweaver 	Mike Gabriel
  878	sur5r 	Jakob Haufe
  879	sven 	Sven Mueller
  880	sylvestre 	Sylvestre Ledru
  881	synrg 	Ben Armstrong
  882	syq 	YunQiang Su
  883	szlin 	SZ Lin
  884	tach 	Taku Yasui
  885	taffit 	David Prévot
  886	taggart 	Matt Taggart
  887	takaki 	Takaki Taniguchi
  888	tanguy 	Tanguy Ortolo
  889	tao 	David Weinehall
  890	taowa 	Taowa Munene-Tardif
  891	tassia 	Tássia Camões Araújo
  892	tats 	Tatsuya Kinoshita
  893	tb 	Thomas Bushnell
  894	tbm 	Martin Michlmayr
  895	tehnick 	Boris Pek
  896	terceiro 	Antonio Terceiro
  897	terpstra 	Wesley W. Terpstra
  898	teusbenschop 	Teus Benschop
  899	tfheen 	Tollef Fog Heen
  900	tg 	Thorsten Glaser
  901	tgg 	Thomas Girard
  902	thansen 	Tobias Hansen
  903	thb 	Thaddeus H. Black
  904	thep 	Theppitak Karoonboonyanan
  905	thibaut 	Thibaut Jean-Claude Paumard
  906	thierry 	Thierry Randrianiriana
  907	thijs 	Thijs Kinkhorst
  908	thk 	Thomas Koch
  909	thom 	Thom May
  910	thorvald 	Thorvald Natvig
  911	tiago 	Tiago Bortoletto Vaz
  912	tianon 	Tianon Gravi
  913	tijuca 	Carsten Schoenert
  914	tille 	Andreas Tille
  915	timo 	Timo Jyrinki
  916	timr 	Tim Riker
  917	tin 	Agustin Henze
  918	tincho 	Martín Ferrari
  919	tiwe 	Timo Weingärtner
  920	tjaalton 	Timo Aaltonen
  921	tjhukkan 	Teemu Hukkanen
  922	tjrc1 	Tim Cutts
  923	tmancill 	Tony Mancill
  924	tobi 	Tobias Frost
  925	toddy 	Tobias Quathamer
  926	tokkee 	Sebastian Harl
  927	toma 	Tamas Szerb
  928	tomasz 	Tomasz Buchert
  929	tomfa 	Tomas Fasth
  930	toni 	Toni Mueller
  931	torsten 	Torsten Landschoff
  932	tpo 	Tomas Pospisek
  933	tpot 	Timothy Martin Potter
  934	treinen 	Ralf Treinen
  935	troup 	James Troup
  936	troyh 	Troy Heber
  937	tschmidt 	Thomas Schmidt
  938	tsimonq2 	Simon Quigley
  939	tvainika 	Tommi Vainikainen
  940	tvincent 	Thomas Vincent
  941	tweber 	Thomas Weber
  942	twerner 	Torsten Werner
  943	tytso 	Theodore Y. Ts'o
  944	tzafrir 	Tzafrir Cohen
  945	ucko 	Aaron M. Ucko
  946	uhoreg 	Hubert Chan
  947	ukleinek 	Uwe Kleine-König
  948	uli 	Ulrich Dangel
  949	ulrike 	Ulrike Uhlig
  950	ultrotter 	Guido Trotter
  951	umlaeute 	IOhannes m zmölnig
  952	unera 	Dmitry Oboukhov
  953	unit193 	Unit 193
  954	urbec 	Judit Foglszinger
  955	utkarsh 	Utkarsh Gupta
  956	uwe 	Uwe Hermann
  957	vagrant 	Vagrant Cascadian
  958	valhalla 	Elena Grandi
  959	vanicat 	Remi Vanicat
  960	varun 	Varun Hiremath
  961	vasudev 	Vasudev Sathish Kamath
  962	vcheng 	Vincent Cheng
  963	vdanjean 	Vincent Danjean
  964	venthur 	Bastian Venthur
  965	vicho 	Javier Merino Cacho
  966	viiru 	Arto Jantunen
  967	vince 	Vincent Sanders
  968	vlegout 	Vincent Legout
  969	vorlon 	Steve Langasek
  970	vseva 	Victor Seva
  971	vvidic 	Valentin Vidic
  972	wagner 	Hanno Wagner
  973	waja 	Jan Wagner
  974	waldi 	Bastian Blank
  975	warp10 	Andrea Colangelo
  976	wart 	Wartan Hachaturow
  977	wdg 	Daniel Glassey
  978	weasel 	Peter Palfrader
  979	wehe 	Werner Heuser
  980	weinholt 	Göran Weinholt
  981	wendar 	Allison Randal
  982	werner 	Morten Werner Forsbring
  983	wferi 	Ferenc Wágner
  984	wijnen 	Bas Wijnen
  985	will 	Will Newton
  986	willi 	Willi Mann
  987	wookey 	Wookey
  988	wouter 	Wouter Verhelst
  989	wrar 	Andrey Rahmatullin
  990	xaiki 	Niv Sardi-Altivanik
  991	xam 	Max Vozeler
  992	xavier 	Xavier Roche
  993	xluthi 	Xavier Lüthi
  994	xnox 	Dimitri Ledkov
  995	yadd 	Xavier Guimard
  996	yaegashi 	Takeshi YAEGASHI
  997	yoh 	Yaroslav Halchenko
  998	yooseong 	Yooseong Yang
  999	yyabuki 	Yukiharu Yabuki
 1000	zack 	Stefano Zacchiroli
 1001	zed 	Zed Pobre
 1002	zeha 	Christian Hofstaedtler
 1003	zhsj 	Shengjing Zhu
 1004	zigo 	Thomas Goirand
 1005	zinoviev 	Anton Zinoviev
 1006	zlatan 	Zlatan Todoric
 1007	zobel 	Martin Zobel-Helas
 1008	zordhak 	Alban Vidal
 1009	zufus 	Marco Presi
 1010	zugschlus 	Marc Haber
 1011	zumbi 	Hector Oron
