<define-tag pagetitle>DLA-625-1 curl</define-tag>
<define-tag report_date>2016-9-17</define-tag>
<define-tag secrefs>CVE-2016-7167 Bug#837945</define-tag>
<define-tag packages>curl</define-tag>
<define-tag isvulnerable>yes</define-tag>
<define-tag fixed>yes</define-tag>
<define-tag fixed-section>no</define-tag>

#use wml::debian::security

